<?xml version="1.0" encoding="utf-8"?>
<!-- Generator: Adobe Illustrator 16.0.0, SVG Export Plug-In . SVG Version: 6.00 Build 0)  -->
<!DOCTYPE svg PUBLIC "-//W3C//DTD SVG 1.1//EN" "http://www.w3.org/Graphics/SVG/1.1/DTD/svg11.dtd">
<svg version="1.1" id="Layer_1" xmlns="http://www.w3.org/2000/svg" xmlns:xlink="http://www.w3.org/1999/xlink" x="0px" y="0px"
	 width="1920px" height="1200px" viewBox="0 0 1920 1200" enable-background="new 0 0 1920 1200" xml:space="preserve">
<g>
	<defs>
		<rect id="SVGID_1_" width="1920" height="1200"/>
	</defs>
	<clipPath id="SVGID_2_">
		<use xlink:href="#SVGID_1_"  overflow="visible"/>
	</clipPath>
	
		<linearGradient id="SVGID_3_" gradientUnits="userSpaceOnUse" x1="204.8931" y1="1613.9473" x2="1535.0167" y2="-144.5231" gradientTransform="matrix(1.1562 0.0057 0.0052 -1.0692 -9.5085 1543.1257)">
		<stop  offset="0" style="stop-color:#689CAE"/>
		<stop  offset="0.1409" style="stop-color:#48839E"/>
		<stop  offset="0.3129" style="stop-color:#276A8E"/>
		<stop  offset="0.4567" style="stop-color:#135B84"/>
		<stop  offset="0.5538" style="stop-color:#0C5580"/>
		<stop  offset="0.5974" style="stop-color:#0A4E77"/>
		<stop  offset="0.7493" style="stop-color:#053A5E"/>
		<stop  offset="0.8878" style="stop-color:#012E4F"/>
		<stop  offset="1" style="stop-color:#002A4A"/>
	</linearGradient>
	<path clip-path="url(#SVGID_2_)" fill="url(#SVGID_3_)" d="M970.16,1677.629c793.597,3.896,1410.215-143.013,1412.973-705.627
		c2.771-562.626-151.641-1275.993-1353.526-1281.891l3.13,0.017c-1228.968-6.032-1363.29,705.918-1366.05,1268.541
		c-2.76,562.619,566.291,715.591,1359.895,719.483L970.16,1677.629z"/>
	
		<linearGradient id="SVGID_4_" gradientUnits="userSpaceOnUse" x1="3068.5449" y1="-670.4341" x2="3156.0239" y2="-2530.8657" gradientTransform="matrix(-1.1562 -0.0057 -0.0047 0.9483 4620.9702 1564.0886)">
		<stop  offset="0" style="stop-color:#00E3E0;stop-opacity:0"/>
		<stop  offset="0.1583" style="stop-color:#02E3E0;stop-opacity:0"/>
		<stop  offset="0.2153" style="stop-color:#09E4E0;stop-opacity:0"/>
		<stop  offset="0.256" style="stop-color:#14E6E0;stop-opacity:0"/>
		<stop  offset="0.2888" style="stop-color:#25E9E0;stop-opacity:0"/>
		<stop  offset="0.317" style="stop-color:#3BEDE0;stop-opacity:0"/>
		<stop  offset="0.3419" style="stop-color:#57F1E0;stop-opacity:0"/>
		<stop  offset="0.3644" style="stop-color:#77F6E0;stop-opacity:0"/>
		<stop  offset="0.3845" style="stop-color:#9BFCE0;stop-opacity:0"/>
		<stop  offset="0.3925" style="stop-color:#ACFFE0;stop-opacity:0"/>
		<stop  offset="0.6748" style="stop-color:#AEFEDE;stop-opacity:0.4647"/>
		<stop  offset="0.7764" style="stop-color:#B4FBD7;stop-opacity:0.632"/>
		<stop  offset="0.8489" style="stop-color:#C0F6CC;stop-opacity:0.7513"/>
		<stop  offset="0.9075" style="stop-color:#D0EEBB;stop-opacity:0.8478"/>
		<stop  offset="0.9571" style="stop-color:#E6E4A5;stop-opacity:0.9295"/>
		<stop  offset="1" style="stop-color:#FFD88B"/>
	</linearGradient>
	<path clip-path="url(#SVGID_2_)" fill="url(#SVGID_4_)" d="M1072.623-852.174C279.026-856.068-337.511-726.119-339.959-227.146
		C-342.415,271.84-187.61,904.604,1014.283,910.502l-3.137-0.018c1228.974,6.036,1362.897-625.313,1365.348-1124.3
		c2.449-498.977-566.688-634.966-1360.289-638.859L1072.623-852.174z"/>
	
		<radialGradient id="SVGID_5_" cx="-5132.2056" cy="-15217.167" r="1002.5931" gradientTransform="matrix(-0.9546 -0.088 -0.0542 0.6142 -3887.7773 9952.9961)" gradientUnits="userSpaceOnUse">
		<stop  offset="0" style="stop-color:#FFD88B"/>
		<stop  offset="0.3109" style="stop-color:#ECE5A6;stop-opacity:0.7513"/>
		<stop  offset="1" style="stop-color:#C3FFE0;stop-opacity:0.2"/>
	</radialGradient>
	<polygon opacity="0.3" clip-path="url(#SVGID_2_)" fill="url(#SVGID_5_)" points="1940.748,1937.971 2047.547,578.316 
		1924,196.254 1673.775,834.314 	"/>
	
		<radialGradient id="SVGID_6_" cx="-4905.4541" cy="-14855.2363" r="794.1941" gradientTransform="matrix(-0.9546 -0.088 -0.0542 0.6142 -3887.7773 9952.9961)" gradientUnits="userSpaceOnUse">
		<stop  offset="0" style="stop-color:#FFD88B"/>
		<stop  offset="0.3109" style="stop-color:#ECE5A6;stop-opacity:0.7513"/>
		<stop  offset="1" style="stop-color:#C3FFE0;stop-opacity:0.2"/>
	</radialGradient>
	<polygon opacity="0.4" clip-path="url(#SVGID_2_)" fill="url(#SVGID_6_)" points="1169.314,1605.178 1688.24,717.466 
		1949.742,646.839 1940.748,1937.971 	"/>
	
		<radialGradient id="SVGID_7_" cx="-3279.8354" cy="17631.0273" r="775.157" gradientTransform="matrix(0.5888 0.7732 0.4759 -0.3789 -5020.6182 10271.3682)" gradientUnits="userSpaceOnUse">
		<stop  offset="0" style="stop-color:#FFD88B"/>
		<stop  offset="0.3109" style="stop-color:#ECE5A6;stop-opacity:0.7513"/>
		<stop  offset="1" style="stop-color:#C3FFE0;stop-opacity:0.2"/>
	</radialGradient>
	<polygon opacity="0.4" clip-path="url(#SVGID_2_)" fill="url(#SVGID_7_)" points="1949.742,646.839 1673.775,834.314 
		1077.586,1075.691 1053.785,1628.479 	"/>
	
		<radialGradient id="SVGID_8_" cx="-3047.5996" cy="17400.3711" r="654.5242" gradientTransform="matrix(0.5888 0.7732 0.4759 -0.3789 -5020.6182 10271.3682)" gradientUnits="userSpaceOnUse">
		<stop  offset="0" style="stop-color:#FFD88B"/>
		<stop  offset="0.3109" style="stop-color:#ECE5A6;stop-opacity:0.7513"/>
		<stop  offset="1" style="stop-color:#C3FFE0;stop-opacity:0.2"/>
	</radialGradient>
	<polygon opacity="0.3" clip-path="url(#SVGID_2_)" fill="url(#SVGID_8_)" points="1741.121,835.969 1492.046,829.847 
		1053.785,1628.479 1581.416,1701.121 	"/>
	
		<radialGradient id="SVGID_9_" cx="-3197.5308" cy="17166.5664" r="418.888" gradientTransform="matrix(0.5888 0.7732 0.4759 -0.3789 -5020.6182 10271.3682)" gradientUnits="userSpaceOnUse">
		<stop  offset="0" style="stop-color:#FFD88B"/>
		<stop  offset="0.3109" style="stop-color:#ECE5A6;stop-opacity:0.7513"/>
		<stop  offset="1" style="stop-color:#C3FFE0;stop-opacity:0.2"/>
	</radialGradient>
	<polygon opacity="0.4" clip-path="url(#SVGID_2_)" fill="url(#SVGID_9_)" points="1077.586,1075.691 1413.244,973.251 
		1462.537,1350.364 1197.377,1718.598 	"/>
	
		<radialGradient id="SVGID_10_" cx="-11832.7246" cy="-17344.5488" r="0" gradientTransform="matrix(1.2778 -0.088 0.0725 0.6142 16372.5264 9952.9961)" gradientUnits="userSpaceOnUse">
		<stop  offset="0" style="stop-color:#FFD88B"/>
		<stop  offset="0.3109" style="stop-color:#ECE5A6;stop-opacity:0.7513"/>
		<stop  offset="1" style="stop-color:#C3FFE0;stop-opacity:0.2"/>
	</radialGradient>
	<path opacity="0.2" clip-path="url(#SVGID_2_)" fill="url(#SVGID_10_)" d="M-4.809,341.254"/>
	
		<radialGradient id="SVGID_11_" cx="-12009.7266" cy="-14534.1602" r="0" gradientTransform="matrix(1.2778 -0.088 0.0725 0.6142 16372.5264 9952.9961)" gradientUnits="userSpaceOnUse">
		<stop  offset="0" style="stop-color:#FFD88B"/>
		<stop  offset="0.3109" style="stop-color:#ECE5A6;stop-opacity:0.7513"/>
		<stop  offset="1" style="stop-color:#C3FFE0;stop-opacity:0.2"/>
	</radialGradient>
	<path opacity="0.2" clip-path="url(#SVGID_2_)" fill="url(#SVGID_11_)" d="M-27.229,2082.971"/>
	
		<radialGradient id="SVGID_12_" cx="5332.1221" cy="24369.8672" r="349.1013" gradientTransform="matrix(-1.0043 0.0893 -0.1019 -0.6377 8931.2529 16288.4971)" gradientUnits="userSpaceOnUse">
		<stop  offset="0" style="stop-color:#FFD88B"/>
		<stop  offset="0.3109" style="stop-color:#ECE5A6;stop-opacity:0.7513"/>
		<stop  offset="1" style="stop-color:#C3FFE0;stop-opacity:0.2"/>
	</radialGradient>
	<polygon opacity="0.4" clip-path="url(#SVGID_2_)" fill="url(#SVGID_12_)" points="1071.449,1200.773 1413.258,972.872 
		1077.586,1075.691 772.57,1475.117 	"/>
	
		<radialGradient id="SVGID_13_" cx="4916.8691" cy="315.7495" r="1160.9253" gradientTransform="matrix(-0.3862 -0.7151 0.45 -0.2431 2052.5913 3518.2139)" gradientUnits="userSpaceOnUse">
		<stop  offset="0" style="stop-color:#FFD88B"/>
		<stop  offset="0.3109" style="stop-color:#ECE5A6;stop-opacity:0.7513"/>
		<stop  offset="1" style="stop-color:#C3FFE0;stop-opacity:0.2"/>
	</radialGradient>
	<line opacity="0.2" clip-path="url(#SVGID_2_)" fill="url(#SVGID_13_)" x1="-571.557" y1="36.838" x2="1163.122" y2="-186.037"/>
	
		<radialGradient id="SVGID_14_" cx="4839.8838" cy="73.3184" r="1340.649" gradientTransform="matrix(-0.3862 -0.7151 0.45 -0.2431 2052.5913 3518.2139)" gradientUnits="userSpaceOnUse">
		<stop  offset="0" style="stop-color:#FFD88B"/>
		<stop  offset="0.3109" style="stop-color:#ECE5A6;stop-opacity:0.7513"/>
		<stop  offset="1" style="stop-color:#C3FFE0;stop-opacity:0.2"/>
	</radialGradient>
	<polygon opacity="0.2" clip-path="url(#SVGID_2_)" fill="url(#SVGID_14_)" points="1177.727,-193.923 944.676,-80.832 
		-159.259,515.377 -744.886,272.699 	"/>
	
		<radialGradient id="SVGID_15_" cx="3337.1738" cy="5397.8535" r="1056.5669" gradientTransform="matrix(-0.8065 -0.1007 0.0634 -0.5075 2608.2883 2901.8596)" gradientUnits="userSpaceOnUse">
		<stop  offset="0" style="stop-color:#FFD88B"/>
		<stop  offset="0.3109" style="stop-color:#ECE5A6;stop-opacity:0.7513"/>
		<stop  offset="1" style="stop-color:#C3FFE0;stop-opacity:0.2"/>
	</radialGradient>
	<polygon opacity="0.2" clip-path="url(#SVGID_2_)" fill="url(#SVGID_15_)" points="-83.682,112.223 -159.259,515.377 
		397.168,-10.784 677.423,-862.585 	"/>
	
		<radialGradient id="SVGID_16_" cx="-3959.7305" cy="2022.4482" r="798.4111" gradientTransform="matrix(0.2084 0.7856 -0.4944 0.1312 1496.7748 2819.2744)" gradientUnits="userSpaceOnUse">
		<stop  offset="0" style="stop-color:#FFD88B"/>
		<stop  offset="0.3109" style="stop-color:#ECE5A6;stop-opacity:0.7513"/>
		<stop  offset="1" style="stop-color:#C3FFE0;stop-opacity:0.2"/>
	</radialGradient>
	<polygon opacity="0.2" clip-path="url(#SVGID_2_)" fill="url(#SVGID_16_)" points="-892.135,-96.916 -741.158,-305.795 
		176.467,-177.801 -95.289,301.216 	"/>
	<path id="path851" clip-path="url(#SVGID_2_)" fill="#FFFFFF" d="M994.485,666.225c-1.904-0.246-3.625-0.752-5.348-1.574
		c-3.473-1.656-6.334-4.498-8.019-7.959c-0.261-0.539-0.491-0.994-0.509-1.01c-0.018-0.02-0.689,0.154-1.497,0.383
		c-8.532,2.434-17.917,2.797-26.741,1.035c-14.377-2.865-27.061-11.203-35.468-23.311c-2.716-3.91-5.249-8.883-6.812-13.367
		l-0.301-0.869l-0.788,0.084c-1.312,0.133-3.947,0.072-5.003-0.119c-1.521-0.273-3.021-0.758-4.41-1.424
		c-3.56-1.713-6.293-4.387-7.989-7.818c-0.757-1.525-1.054-2.348-1.439-3.988c-0.281-1.189-0.296-1.381-0.295-3.668
		c0.004-2.092,0.036-2.549,0.234-3.445c1.566-7.027,6.884-12.176,13.894-13.455c0.967-0.176,3.673-0.256,4.901-0.143l0.576,0.051
		l0.638-1.834c3.624-10.443,10.4-19.705,19.293-26.381c8.803-6.609,18.973-10.422,30.044-11.271
		c1.817-0.139,6.483-0.139,8.298,0.002c3.078,0.234,6.314,0.738,9.1,1.414c0.826,0.201,1.543,0.363,1.592,0.363
		s0.35-0.496,0.668-1.107c0.762-1.455,1.577-2.58,2.794-3.855c2.5-2.617,5.411-4.236,9.02-5.016c1.48-0.318,4.979-0.35,6.452-0.059
		c1.6,0.318,2.978,0.791,4.51,1.543c5.403,2.66,9.074,8.107,9.477,14.063c0.297,4.387-0.952,8.486-3.608,11.857l-0.673,0.854
		l0.206,0.273c0.112,0.152,0.634,0.818,1.157,1.482c1.196,1.516,3.296,4.65,4.357,6.502c6.818,11.918,8.984,26.01,6.073,39.514
		c-1.63,7.559-5.152,15.273-9.796,21.453c-0.466,0.621-0.848,1.16-0.848,1.193c0,0.035,0.398,0.482,0.886,0.994
		c3.043,3.197,4.751,7.84,4.534,12.313c-0.085,1.74-0.322,3.008-0.87,4.666c-2.063,6.24-7.481,10.73-13.987,11.598
		C997.591,666.346,995.573,666.363,994.485,666.225L994.485,666.225z M999.101,660.893c3.077-0.688,5.707-2.51,7.441-5.148
		c3.117-4.748,2.463-11.09-1.563-15.107c-3.508-3.504-8.668-4.488-13.221-2.525c-3.85,1.66-6.604,5.375-7.122,9.609
		c-0.154,1.266-0.146,1.869,0.045,3.166c0.816,5.484,5.018,9.531,10.643,10.248C996.058,661.227,998.23,661.088,999.101,660.893
		L999.101,660.893z M967.484,639.434c10.353-1.09,19.621-6.139,25.978-14.158c4.51-5.691,7.282-12.57,7.943-19.721
		c0.167-1.807,0.143-5.496-0.048-7.297c-0.743-7.057-3.323-13.418-7.774-19.186c-1.158-1.498-4.531-4.902-6.073-6.125
		c-5.611-4.457-11.968-7.135-19.246-8.107c-1.983-0.266-7.409-0.266-9.388,0.002c-6.014,0.807-11.312,2.74-16.182,5.908
		c-7.111,4.621-12.439,11.459-15.148,19.441c-2.734,8.053-2.595,16.932,0.393,24.965c0.659,1.771,2.256,5.006,3.263,6.605
		c5.854,9.299,15.255,15.555,26.088,17.355c0.874,0.145,2.036,0.305,2.584,0.355C961.584,639.631,965.818,639.607,967.484,639.434
		L967.484,639.434z M961.604,631.863c-2.812-0.145-6.185-0.859-8.917-1.887c-7.829-2.953-14.205-9.244-17.251-17.025
		c-0.658-1.682-1.279-3.893-1.141-4.059c0.095-0.113,1.446-0.135,7.153-0.111l7.037,0.027l0.475,0.861
		c1.132,2.059,2.763,3.945,4.601,5.328c2.99,2.248,7.275,3.463,10.926,3.1c3.997-0.404,7.264-1.928,10.014-4.678
		c1.302-1.303,2.2-2.559,3-4.193c1.104-2.264,1.553-4.023,1.642-6.457c0.112-3.053-0.433-5.5-1.826-8.197
		c-2.879-5.582-9.167-9.037-15.438-8.48c-2.288,0.201-4.122,0.734-6.206,1.805c-2.748,1.412-5.144,3.775-6.712,6.623l-0.475,0.863
		l-7.071,0.025c-5.209,0.021-7.088-0.004-7.143-0.092c-0.16-0.256,0.732-3.096,1.607-5.125c3.785-8.764,11.708-15.219,21.169-17.244
		c2.315-0.498,3.733-0.615,6.737-0.559c3.621,0.068,5.67,0.404,8.777,1.438c14.722,4.9,23.251,20.318,19.551,35.338
		c-2.902,11.775-12.588,20.617-24.533,22.398c-0.577,0.084-1.734,0.201-2.568,0.262C963.556,631.93,962.997,631.936,961.604,631.863
		L961.604,631.863z M909.241,614.572c1.638-0.34,3.152-0.992,4.559-1.961c0.991-0.684,2.59-2.355,3.225-3.373
		c2.29-3.678,2.527-8.156,0.632-11.967c-1.192-2.395-3.016-4.246-5.35-5.428c-1.79-0.904-3.347-1.271-5.401-1.271
		c-2.582,0-4.743,0.676-6.889,2.156c-0.942,0.65-2.504,2.256-3.113,3.197c-2.658,4.123-2.704,9.164-0.117,13.313
		c0.634,1.018,2.231,2.689,3.225,3.373c1.781,1.229,3.423,1.832,5.898,2.168C906.479,614.857,908.471,614.732,909.241,614.572z
		 M995.584,566.795c2.762-0.314,5.097-1.408,7.084-3.314c2.482-2.385,3.709-5.236,3.709-8.639c0-2.055-0.368-3.611-1.275-5.4
		c-1.66-3.283-4.722-5.615-8.415-6.408c-1.284-0.275-3.699-0.258-4.987,0.035c-4.786,1.1-8.325,4.691-9.339,9.488
		c-0.25,1.178-0.25,3.395,0,4.572c0.538,2.555,1.645,4.549,3.521,6.352c1.142,1.092,2.179,1.787,3.566,2.385
		C991.447,566.729,993.481,567.037,995.584,566.795z"/>
</g>
</svg>
